Num,Query
Q1,"MATCH (i:Item) WHERE i.itemid=""2"" and datetime(i.startvalidtime)< datetime(""2015-08-17"") AND (datetime(i.endvalidtime)>=datetime(""2015-08-16"") OR datetime(i.endvalidtime) IS NULL)  RETURN keys(i) as schema "
Q2,"MATCH (i:Item) WHERE i.itemid=""2"" and datetime(i.startvalidtime)< datetime(""2015-05-17"") AND (datetime(i.endvalidtime)>=datetime(""2015-05-16"") OR datetime(i.endvalidtime) IS NULL)  RETURN keys(i) as schema,i.startvalidtime  as start_valid_time, i.endvalidtime  as end_valid_time  UNION  MATCH (j:Item) WHERE j.itemid=""2"" and datetime(j.startvalidtime)< datetime(""2015-08-17"") AND (datetime(j.endvalidtime)>=datetime(""2015-08-16"") OR datetime(j.endvalidtime) IS NULL)  RETURN keys(j) as schema,j.startvalidtime as start_valid_time, j.endvalidtime  as end_valid_time"
Q3,"MATCH (i:Item) WHERE i.itemid=""2"" and datetime(i.startvalidtime)< datetime(""2015-05-17"") AND (datetime(i.endvalidtime)>=datetime(""2015-05-16"") OR datetime(i.endvalidtime) IS NULL)  MATCH (j:Item) WHERE j.itemid=""2"" and datetime(j.startvalidtime)< datetime(""2015-08-17"") AND (datetime(j.endvalidtime)>=datetime(""2015-08-16"") OR datetime(j.endvalidtime) IS NULL)  RETURN keys(i) as schema_2015_05_16, i.startvalidtime as startvalidtime_schema_2015_05_16, i.endvalidtime as endvalidtime_schema_2015_05_16, keys(j) as schema_2015_08_16, j.startvalidtime as startvalidtime2015_08_16, j.endvalidtime  as endvalidtime_schema_2015_08_16, [attribute in keys(j) WHERE NOT attribute IN keys(i)] as added_attributes, [attribute in keys(i) WHERE NOT attribute IN keys(j)] as missing_attributes"
Q4 ,"MATCH (i:Item) WHERE i.itemid=""2"" and datetime(i.startvalidtime)< datetime(""2015-08-17"") AND (datetime(i.endvalidtime)>=datetime(""2015-05-16"") OR datetime(i.endvalidtime) IS NULL)  RETURN keys(i) as schema, i.startvalidtime as startvalidtime, i.endvalidtime as endvalidtime "
Q5,"UNWIND range(0,4) as i MATCH (s:Item) WHERE s.itemid=""2"" AND datetime(s.startvalidtime).month<= (5+ i) AND datetime(s.endvalidtime).month>= (5+ i) RETURN ""2015-0""+ datetime(s.endvalidtime).month as month, keys(s) as schema ORDER BY datetime(s.endvalidtime).month ASC "
Q6,"MATCH (i:Item) WHERE i.itemid=""2"" and datetime(i.startvalidtime)< datetime(""2015-08-17"") AND (datetime(i.endvalidtime)>=datetime(""2015-05-16"") OR datetime(i.endvalidtime) IS NULL)  WITH i ORDER BY datetime(i.endvalidtime) ASC WITH collect(i) as items UNWIND range(0, size(items) - 2) as index RETURN items[index].endvalidtime as date1, items[index +1].endvalidtime as date2,[attribute in keys(items[index+1]) WHERE NOT attribute IN keys(items[index])] as added_attributes, [attribute in keys(items[index]) WHERE NOT attribute IN keys(items[index+1])] as missing_attributes"
